
{
	"baseMessage": "Bonjour %s,\r%s",
	"errorMessage": "Merci de faire appel à moi, mais je ne peux pas te répondre pour la raison suivante :\r\n",
	"swgohApi":{
		"loadingFromSwgohApi": ":hourglass: Chargement des données sur swgoh.help, veuillez patienter… :hourglass_flowing_sand: ",
		"swgohApiError": ":sob: Une erreur technique est survenue lors de l'accèse à swgoh.help\r\nL'API swgoh.help est toujours en constante évolution, veuillez nous excuser de cet incident et réessayer plus tard…",
		"rateLimit": ":sob: Désolé, nous ne pouvons pas récupérer plus de données sur swgoh.help à cause d'un trop grand nombre d'utilisateurs.\r\nMerci de réessayer plus tard ;)",
		"duplicateQuery": ":sob: Désolé, mais quelqu'un d'autre est déjà en train de me demander la même chose.\r\nMerci de réessayer dans quelques minutes.\r\nLorsque j'aurai terminé de répondre à l'autre demande, j'aurai toutes vos données en mémoire et pourrai donc vous répondre instantanément :)",
		"timeOut": ":sob: Je suis désolé, mais notre requête n'a pas abouti sur les serveurs de swgoh.help.\r\nCela est probablement dû à une surcharge de swgoh.help\r\nMerci de réessayer dans quelques minutes…",
		"partialRefresh":"Une partie (ou la totalité) des données demandées n'a pas pu être rafraîchie'.\r\nLe dernier rafraîchissement complet a eu lieu le %tF"		
	},
	"raidCommandParameters": {
		"command": "raid",
		"messages": {
			"percentDifference": "De *%.1f%%* à *%.1f%%* sur le **%s** en *phase %s*, votre équipe a fait **%s** dégâts.",
			"percentDifferencePhaseChange": "De *%.1f%%* à *%.1f%%* sur le **%s** en *phase %s*, si mon interprétation est correcte, vous avez changé de phase.\r\nSi c'est bien cela, votre équipe a fait **%s** dégâts.",
			"damages": "Sur le **%s** en *phase %s*, *%s* dégâts correspondent à **%.1f%%**",
			"percent": "Sur le **%s** en *phase %s*, *%s* correspondent à **%s** dégâts",
			"target": "Sur le **%s**, en commençant en *phase %s à %.1f%%* :\r\nPour atteindre votre objectif de *%s* dégâts, vous devez vous arrêter en **phase %s à %.1f%%**",
			"help": "Voici des exemples de commandes disponibles pour déterminer vos résultats de raid :\r\n\r\n- **%raid rancor p1 5.5%** ==> Donne les dégâts correspondant à 5.5% réalisés en P1 sur le rancor\r\n- **%raid rancor p2 10% 4%** ==> Donne les dégâts correspondant à 6% réalisés sur la P2 du rancor\r\n - ** %raid aat p3 40000 ** == > Donne le % correspondant à 40 K de dégâts sur la p3 du tank\r\n - ** %raid tank p4 35 % 100000 ** == > Donne le % cible à atteindre pour réaliser 100 K dégâts en commençant le combat à 35 % sur la P4 du tank\r\n - ** %raid tank p4 35 % 100000 300000 ** == > Donne les % cibles à atteindre pour réaliser 100 K et 300 k dégâts en commençant le combat à 35 % sur la P4 du tank\r\n%raid sith p4-nihilus 5%=> renvoie le nombre de HP correspondant à 5% des HP de Nihilus sur la p4 du Sith",
			"targetRange": "Sur le **%s**, en commençant en *phase %s à %.1f%%* :\r\nPour être dans la tranche *%s-%s* dégâts, vous devez vous arrêter entre \n **phase %s à %.1f%%** \n et \n **phase %s à %.1f%%**"
		},
		"errorMessages": {
			"overRaidEnd": "Votre objectif dépasse la fin du raid",
			"overRaidEndSecond": "\nEt votre deuxième objectif dépasse la fin du raid",
			"incoherentParams": "Les deux derniers paramètres entrés ne sont pas cohérents",
			"incorrectNumber": "Un nombre entré n'a pas été reconnu correctement",
			"phaseNotFound": "Nom de la phase non reconnu",
			"incorrectParamsNumber": "Nombre de paramètres incorrect",
			"raidNotFound": "raid non trouvé"
		},
		"raids": [
			{
				"name": "rancor",
				"aliases": [],
				"phases": [
					{
						"name": "p1",
						"damage1percent": 18730
					},
					{
						"name": "p2",
						"damage1percent": 30550
					},
					{
						"name": "p3",
						"damage1percent": 33000
					},
					{
						"name":"p4",
						"damage1percent": 21080
					}
				]
			},
			{
				"name": "tank",
				"aliases": [
					"haat",
					"aat"
				],
				"phases": [
					{
						"name":"p1",
						"damage1percent": 40731
					},
					{
						"name": "p2",
						"damage1percent": 191228
					},
					{
						"name": "p3",
						"damage1percent": 127063
					},
					{
						"name": "p4",
						"damage1percent": 124560
					}
				]
			},

			{
				"name": "sith",
				"aliases": [
					"sith-t7"
				],
				"phases": [
					{
						"name":"p1",
						"damage1percent": 468887.76
					},
					{
						"name":"p2",
						"damage1percent": 521055.85
					},
					{
						"name":"p3",
						"damage1percent": 383714.55
					},
					{
						"name":"p4-nihilus",
						"damage1percent": 118220.98
					},
					{
						"name":"p4-sion",
						"damage1percent": 96748.37
					},
					{
						"name":"p4-traya",
						"damage1percent": 120026.02
					}
				]
			}
		]
	},

	"commonErrors":{
		"AllyCodeNotFound":"Le code allié %s n'a pas été trouvé. \r\nMerci d'utiliser la commande **%%parametrage codeAllie XXX-XXX-XXX**",
		"AllyCodeForUserNotFound":"de l'utilisateur' %s",
		"localDbError":"An error occurred while accessing our database"
	},

	"modsCommandParameters": {
		"command": "mods",
		"messages": {
			"approxMatches": "\r\n**Voici des personnages qui ressemblent à votre recherche :**\r\n\r\n",
			"characterMods": "**  Set 1** : %s\r\n  **Set 2** : %s\r\n  **Set 3** : %s\r\n\r\n  **☐** : %s\r\n  **➚** : %s\r\n  **◆** : %s\r\n  **Δ** : %s\r\n  **O** : %s\r\n  **✙** : %s\r\n  ",
			"help": "Cette commande vous permet de connaître les mods recommandés pour un personnage.\r\n\r\n**Exemple d'appel**\r\n%mods anakin"
		},
		"errorMessages": {
			"paramsError": "L'API de mods n'est pas correctement configurée. Impossible d'utiliser cette fonction.",
			"accessError": "Impossible d'accéder à l'API de mods. Impossible d'utiliser cette fonction.",
			"jsonError": "L'API de mods a renvoyé une réponse mal formatée. Impossible d'utiliser cette fonction.",
			"tooLong": "**La réponse détaillée est trop longue pour être affichée sur Discord.\r\nVoici la liste des personnages correspondant à votre recherche :**\r\n"
		}
	},
	"balancingCommandParameters": {
		"minRaidsForPodium":-1,
		"commands": {
			"command": "equilibrage",
			"update": "maj",
			"launchRaid": "lancer",
			"endRaid": "terminer",
			"report": "rapport",
			"delete": "supprimer",
			"add": "ajouter",
			"adjust": "ajuster"
		},
		"help": "Cette commande vous permet de connaître votre équilibrage sur un raid.\r\n\r\n**Exemple d'appel**\r\n%equilibrage rancor\r\n**Commandes pour les officiers :**\r\n%equilibrage maj\r\n%equilibrage lancer rancor @podium1 @podium2 @podium3 @exclus1 @exclus2\r\n%equilibrage ajouter @user\r\n%equilibrage supprimer @user\r\n%equlibrage supprimer XXXX\r\n%equilibrage terminer tank\r\n%equilibrage lancer tank podium-auto @exclusDuTop10\r\n%equilibrage lancer tank @podium1 @podium2 @podium3 @exclusDuTop10\r\n%equilibrage ajuster tank podium +1 @user1 @user2\r\n%equilibrage ajuster tank 2 -1 @user1 @user2",
		"messages": {
			"embedTitle": "Équilibrage de %s",
			"embedLine": "**Tranche %s** : %d\r\n",
			"currentRaidsTitle": "Objectif pour les raids en cours :\r\n",
			"currentRaidRange": "**%S **: Tranche %s %s dégâts\r\n",
			"currentRaidPodium": "**%S **: Podium\r\n",
			"podiumText": "**+--- Podium ---+**\r\n",
			"podiumEnd": "**+--------------+**\r\n\r\n",
			"confirmDelete": "Êtes-vous sûr de vouloir supprimer l'utilisateur **%s** ?\r\n:warning: Cette action est irréversible !"
		},
		"errorMessages": {
			"forbidden": "Vous n'avez pas le droit d'exécuter cette commande",
			"writeJson": "Erreur lors de l'écriture du fichier JSON",
			"archiveJson": "Erreur lors de l'archivage du fichier JSON",
			"readJson": "Erreur lors de la lecture du fichier JSON",
			"numberProblem": "Un nombre entré n'a pas été reconnu"
		}
	},
	"arenaCommandParameters": {
		"command": "arene",
		"messages": {
			"fastestPath": "Le meilleur classement peut être atteint en suivant la progression :\r\n **%s** \r\n",
			"help": "Cette commande donne le plus haut rang d'arène accessible en 5 combats.\r\n\r\n**Exemple d'appel**\r\n%arene 26",
			"helpUs": "Attention ce résultat est approximatif par manque de données. N'hésitez pas à nous aider en nous contactant sur Discord (<https://jedistar.jimdo.com/jedistar-bot/>).\r\n",
			"fastestPathTitle": "Sans dépenser de cristaux à partir du rang %d",
			"helpUsTitle": "Attention"
		},
		"errorMessages": {
			"incoherentParams": "Un seul paramètre est nécessaire, le rang d'arène de départ",
			"invalidRank": "Ce rang d'arène n'est pas valide",
			"incorrectNumber": "Le nombre entré n'a pas été reconnu correctement"
		}
	},
	
	"setUpCommandParameters": {
		"commands": {
			"base": "parametrage",
			"guildNumber": "numeroGuilde",
			"allyCode": "codeAllie"
		},
		"help": "Cette commande vous permet de paramétrer le bot.\r\nCommandes possibles :\r\n%parametrage numeroGuilde XXX\r\nVous trouverez votre numéro de guilde sur swgoh.gg, dans l'adresse de votre page de guilde.",
		"messages": {
			"confirmUpdateAllyCode": "Votre utilisateur Discord est déjà associé au code allié %d\r\nVoulez-vous changer cette association ?",
			"allyCodeSetupOK":"Ce code allié déjà lié à votre compte Discord !"
		},
		"errorMessages": {
			"forbidden": "Vous n'avez pas le droit d'exécuter cette commande.\r\nVous devez faire partie du groupe Discord «botadmins» pour administrer le bot.",
			"paramsNummber": "Pas suffisamment de paramètres",
			"incorrectNumber": "Le nombre entré n'a pas été reconnu correctement",
			"sqlError": "Une erreur est survenue lors de l'accès à la base de données",
			"noCommandFound": "Commande non reconnue"
		}
	},
	
	"territoryBattlesCommandParams":{
		
		"commands":{
			"base":"tb",
			"platoon":"platoon",
			"characters":"persos",
			"ships":"vaisseaux",
			"strategy":"gp",
			"dsStrategy":"ds",
			"lsStrategy":"ls",
			"strategyMin":"min",
			"reverseOrder":"inverse"
		},
		
		"help":"Commandes possibles :\r\n%tb platoon aayla 5\\*\r\n%tb platoon ghost 5\\*\r\n%tb gp ls\r\n%tb gp ds min\r\n%tb platoon ghost inverse",
		
		"messages":{
			"displayedResults":"Liste des 15 plus faibles (total %d)",
			"displayedResultsReverse": "Liste des 15 plus fortes (total %d)",
			"noUnitFound":"Aucun membre n'a cette unité au niveau de rareté demandé dans votre guilde",
			"maxStarResult" : "GP Personnages : %s\r\nGP Vaisseaux : %s\r\nTOTAL GP : %s\r\n------\r\nMaximum possible pour l'aérien : %s \r\nMaximum possible pour les terrestres : %s \r\nTOTAL : %d :star:\r\n",
			"maxStarTitle" : "%s : Maximum possible avec l'ensembles des pelotons complets et les missions de combats intégralement réussies par 50 membres.",
			"minStarTitle" : "%s : Minimum possible avec l'ensembles des pelotons vides et aucunes missions de combats effectués",
			"dsBattleName" : "Imperial Retaliation",
			"lsBattleName" : "Rebel Assault",
			"startCountMargin" : "%d :star: avec %s de surplus. ",
			"nextStar" : "Prochaine dans %s."
		},
		"errorMessages": {
			"noChannel": "Cette commande doit être appelée depuis un serveur (pas de MP)",
			"sqlError": "Une erreur est survenue lors de l'accès à la base de données",
			"commandError": "Cette commande n'existe pas",
			"paramsNumber": "Pas suffisamment de paramètres",
			"incorrectNumber": "Le nombre entré n'a pas été reconnu correctement",
			"tooMuchResults": "Trop de résultats, voici les personnages correspondant à votre recherche\r\n"
		}
	},
	"helpCommandParameters": {
		"command": "help",
		"messages": {
			"introMessage": "Pour une aide détaillée, consulter : <https://jedistar.jimdo.com/jedistar-bot/>\r\nVoici un petit aperçu de ce que je peux faire pour vous :",
			"smallModsMessage": "- %help mods : pour en savoir plus sur la commande mods",
			"smallRaidMessage": "- %help raid : pour en savoir plus sur la commande raid",
			"smallEquilibrageMessage": "- %help equilibrage : pour en savoir plus sur la commande equilibrage",
			"smallArenaMessage": "- %help arene : pour en savoir plus sur la commande arene",
			"smallTbMessage": "- %help tb : pour en savoir plus sur la commande tb",
			"smallPayoutsMessage": "- %help payouts : pour en savoir plus sur la fonction payouts",
			"modsMessage": "**Cette commande vous permet de connaître les mods recommandés pour un personnage.**\r\n\r\n**Exemple d'appel**\r\n%mods anakin",
			"raidMessage": "**Voici des exemples de commandes disponibles pour déterminer vos résultats de raid** :\r\n\r\n- **%raid rancor p1 5.5%** ==> Donne les dégâts correspondant à 5.5% réalisés en P1 sur le rancor\r\n- **%raid rancor p2 10% 4%** ==> Donne les dégâts correspondant à 6% réalisés sur la P2 du rancor\r\n - ** %raid aat p3 40000 ** == > Donne le % correspondant à 40 K de dégâts sur la p3 du tank\r\n - ** %raid tank p4 35 % 100000 ** == > Donne le % cible à atteindre pour réaliser 100 K dégâts en commençant le combat à 35 % sur la P4 du tank\r\n - ** %raid tank p4 35 % 100000 300000 ** == > Donne les % cibles à atteindre pour réaliser 100 K et 300 k dégâts en commençant le combat à 35 % sur la P4 du tank",
			"equilibrageMessage": "**Cette commande vous permet de connaître votre équilibrage sur un raid.**\r\n\r\n**Exemple d'appel**\r\n%equilibrage rancor\r\n**Commandes pour les officiers :**\r\n%equilibrage maj\r\n%equilibrage lancer rancor @podium1 @podium2 @podium3 @exclus1 @exclus2\r\n%equilibrage ajouter @user\r\n%equilibrage supprimer @user\r\n%equlibrage supprimer XXXX\r\n%equilibrage terminer tank\r\n%equilibrage lancer tank podium-auto @exclusDuTop10\r\n%equilibrage lancer tank @podium1 @podium2 @podium3 @exclusDuTop10",
			"arenaMessage": "**Cette commande donne le plus haut rang d'arène accessible en 5 combats.**\r\n\r\n**Exemple d'appel**\r\n%arene 26",
			"tbMessage": "**Commandes possibles** :\r\n%tb platoon persos aayla 5\\*\r\n%tb platoon vaisseaux ghost 5\\*\r\n%tb gp",
			"payoutsMessage": "Cette commande permet de gérer les payouts d'arène.\r\n**Exemple d'appel : %payouts**\r\n**Pour les administrateurs :**\r\n%payouts ajouter user 15:00 UTC flag_us https://swgoh.gg/u/user\r\n%payouts ajouter user 12:00 EST\r\n%payouts supprimer user"
		},
		"errorMessages": {
			"paramsError": "la commande que vous demandez n'est pas connu, merci d'utiliser les notations suivantes : \r\n\r\n - %help : pour avoir accès à toutes l'aide \r\n - %help mods : pour une aide sur la fonctionnalité des mods \r\n - %help raid : pour une aide sur la fonctionnalité des raids \r\n - %help equilibrage : pour une aide sur la fonctionnalité d'équilibrage",
			"technicalError": "une erreur technique est survenu, veuillez contacter votre administrateur Discord"
		}
	},
	"payoutCommandParameters": {
		"commands": {
			"main": "payouts",
			"add": "ajouter",
			"delete": "supprimer",
			"copy": "copier",
			"clear": "vider",
			"defaultLimit": "limitepardefaut",
			"all": "tous"
		},
		"help": "Cette commande permet de gérer les payouts d'arène.\r\n**Exemple d'appel : %payouts**\r\n%payouts tous\r\n%payouts 3**Pour les administrateurs :**\r\n%payouts ajouter user 15:00 UTC flag_us https://swgoh.gg/u/user\r\n%payouts ajouter user 12:00 EST\r\n%payouts supprimer user\r\n%payouts vider\r\n%payouts copier #channel\r\n%payouts limiteParDefaut 3",
		"messages": {
			"embedTitle": "Temps avant le prochain payout :",
			"timezoneConfirmation": "En utilisant le fuseau horaire **%s**, je calcule que le payout de **%s** aura lieu dans **%02d:%02d** heures.\r\nEst-ce correct ?",
			"timezoneChoice": "Les fuseaux horaires suivants correspondent à votre saisie :",
			"noTimezoneFound": "Aucun fuseau horaire trouvé. Voici un fichier texte contenant la liste des fuseaux possibles.",
			"deleteConfirmation": "Êtes-vous sûr de vouloir supprimer cet utilisateur ?",
			"clearWarning": "Cette action va effacer tous les joueurs enregistrés dans ce salon pour la commande payouts\r\n:warning: **Cette action est irréversible !** :warning:",
			"copyWarning": "Cette action va copier tous les joueurs déclarés dans le salon **%s** pour la commande payouts.",
			"setupOK": "Configuration réussie."
		},
		"errorMessages": {
			"forbidden": "Vous n'avez pas le droit d'exécuter cette commande.\r\nVous devez faire partie du groupe Discord «botadmins» pour administrer le bot.",
			"unrecognizedCommand": "Commande non reconnue",
			"timeFormat": "L'heure est mal formatée. Merci d'utiliser le format HH:MM (par exemple 08:30)",
			"sqlError": "Une erreur est survenue lors de l'accès à la base de données",
			"noChannel": "Cette commande doit être utilisée depuis un salon Discord (pas de message privé)",
			"noUserFound": "Cet utilisateur n'est pas enregistré dans la commande %payouts dans ce salon",
			"noUsersInThisChan": "Aucun utilisateur n'a été enregistré dans ce salon. Utilisez la commande **%payouts ajouter**",
			"noTimezone": "Votre commande ne contient pas de timeZone",
			"channelFormat": "Salon non trouvé. Merci d'utiliser les tags #nom-salon dans cette commande.",
			"numberFormat": "Nombre non reconnu."
		}
	},

	"guildReportCommandParameters":{
		"commands":{
			"main":"guildreport",
			"all":"all"
		},

		"errorMessages": {
			
			"sqlError": "Une erreur est survenue lors de l'accès à la base de données"
				
		},
		
		"excelValues":{
			"headers":{
				"selectCharacter":"SÉLECTIONNER PERSONNAGE"
			},
			"unitTypes":{
				"ship":"vaisseau",
				"toon":"personnage"
			},
			"filename":"rapportGuildeSwgoh_%tF.xlsx"
		}
	},
	
	"playerAllyCodeInserterParams":{
		"messages":{
			"insertionOK":"Paramétrage du code allié réussi !\r\nVotre compte Discord est synchronisé avec le compte joueur **%s** de la guilde **%s**",
			"cancel": "OK, j'annule."
		},
		"errors":{
			"databaseError":"Il y a eu un problème technique lors de l'insertion de votre code allié dans notre base de données",
			"allyCodeNotFound":"Votre code allié n'a pas été trouvé sur les serveurs du jeu"
		}
	},

	"zetasCommandParameters":{
		"commands":{
			"base":"zetas"
		}
	},
	
	"mymodsCommandParameters":{
		"commands":{
			"base":"mymods"
		},
		"rancorModsManagerURL":"http://apps.crouchingrancor.com/Mods/Manager?c=%d",
		"messages":{
			"embedTitle":"Page de gestion des mods de %s sur CrouchingRancor",
			"embedContent":"Parcourez et gérez vos mods sur cet outil proposé par CrouchingRancor"
		}
	},
	
	"specificListenerParams":{
		"messages":{
			"cancel":"OK, j'annule.",
			"success":"Opération réussie !"
		},
		"errors":{
			"databaseError":"Un problème de base de donnée est survenu."
		}
	}
	
}
